{
    "Access-Control-Allow-Origin": "*",
    "Access-Control-Allow-Methods": "GET, POST, DELETE, OPTIONS",
    "Access-Control-Allow-Headers": "Accept, Authorization, Content-Type, Origin, X-Requested-With"
}